{
  "plan_id" : "2ddebd08-5e6a-4eeb-aee2-df57de884063",
  "plan_act_id" : "c1272333-8bd6-4fb3-acf2-dbe59cb00a79",
  "sla_id" : "571A3C86F55E548E72AE0804",
  "supply_chain_id" : "7e5aa49d-c991-47f6-9087-e344872ba5c8",
  "creation_time" : 1461337223579,
  "monitoring_core_ip" : "194.102.62.222",
  "monitoring_core_port" : 9090,
  "iaas" : {
    "provider" : "Eucalyptus",
    "zone" : "eucalyptus",
    "appliance" : "emi-65c3e382",
    "hardware" : "c1.xlarge"
  },
  "pools" : [ {
    "pool_name" : null,
    "pool_seq_num" : 0,
    "nodes_access_credentials_reference" : null,
    "vms" : [ {
      "vm_seq_num" : 0,
      "public_ip" : null,
      "components" : [ {
        "component_id" : "DBB_main_server",
        "cookbook" : "E2EE",
        "recipe" : "install_E2EE_server",
        "implementation_step" : 3,
        "acquire_public_ip" : false,
        "private_ips_count" : 1,
        "firewall" : {
          "incoming" : {
            "source_ips" : [ ],
            "source_nodes" : [ ],
            "interface" : "private:1",
            "proto" : [ "TCP" ],
            "port_list" : [ "22", "80", "443", "4443", "8080" ]
          },
          "outcoming" : {
            "destination_ips" : [ ],
            "destination_nodes" : [ ],
            "interface" : "private:1",
            "proto" : [ "TCP" ],
            "port_list" : [ "*" ]
          }
        },
        "private_ips" : [ ],
        "status" : null
      } ]
    }, {
      "vm_seq_num" : 1,
      "public_ip" : null,
      "components" : [ {
        "component_id" : "DBB_backup_server",
        "cookbook" : "E2EE",
        "recipe" : "install_E2EE_server",
        "implementation_step" : 3,
        "acquire_public_ip" : false,
        "private_ips_count" : 1,
        "firewall" : {
          "incoming" : {
            "source_ips" : [ ],
            "source_nodes" : [ ],
            "interface" : "private:1",
            "proto" : [ "TCP" ],
            "port_list" : [ "22", "80", "443", "4443", "8080" ]
          },
          "outcoming" : {
            "destination_ips" : [ ],
            "destination_nodes" : [ ],
            "interface" : "private:1",
            "proto" : [ "TCP" ],
            "port_list" : [ "*" ]
          }
        },
        "private_ips" : [ ],
        "status" : null
      } ]
    }, {
      "vm_seq_num" : 2,
      "public_ip" : null,
      "components" : [ {
        "component_id" : "DBB_main_db",
        "cookbook" : "DBB",
        "recipe" : "postgresql_master",
        "implementation_step" : 1,
        "acquire_public_ip" : false,
        "private_ips_count" : 1,
        "firewall" : {
          "incoming" : {
            "source_ips" : [ ],
            "source_nodes" : [ ],
            "interface" : "private:1",
            "proto" : [ "TCP" ],
            "port_list" : [ "22", "80", "443", "5432" ]
          },
          "outcoming" : {
            "destination_ips" : [ ],
            "destination_nodes" : [ ],
            "interface" : "private:1",
            "proto" : [ "TCP" ],
            "port_list" : [ "*" ]
          }
        },
        "private_ips" : [ ],
        "status" : null
      } ]
    }, {
      "vm_seq_num" : 3,
      "public_ip" : null,
      "components" : [ {
        "component_id" : "DBB_backup_db",
        "cookbook" : "DBB",
        "recipe" : "postgresql_slave",
        "implementation_step" : 2,
        "acquire_public_ip" : false,
        "private_ips_count" : 1,
        "firewall" : {
          "incoming" : {
            "source_ips" : [ ],
            "source_nodes" : [ ],
            "interface" : "private:1",
            "proto" : [ "TCP" ],
            "port_list" : [ "22", "80", "443", "5432" ]
          },
          "outcoming" : {
            "destination_ips" : [ ],
            "destination_nodes" : [ ],
            "interface" : "private:1",
            "proto" : [ "TCP" ],
            "port_list" : [ "*" ]
          }
        },
        "private_ips" : [ ],
        "status" : null
      } ]
    }, {
      "vm_seq_num" : 4,
      "public_ip" : null,
      "components" : [ {
        "component_id" : "DBB_auditor",
        "cookbook" : "E2EE",
        "recipe" : "auditor",
        "implementation_step" : 3,
        "acquire_public_ip" : false,
        "private_ips_count" : 1,
        "firewall" : {
          "incoming" : {
            "source_ips" : [ ],
            "source_nodes" : [ ],
            "interface" : "private:1",
            "proto" : [ "TCP" ],
            "port_list" : [ "22", "80", "443", "5000" ]
          },
          "outcoming" : {
            "destination_ips" : [ ],
            "destination_nodes" : [ ],
            "interface" : "private:1",
            "proto" : [ "TCP" ],
            "port_list" : [ "*" ]
          }
        },
        "private_ips" : [ ],
        "status" : null
      }, {
        "component_id" : "DBB_monitoring_adapter",
        "cookbook" : "E2EE",
        "recipe" : "install_E2EE_Monitoring_Adapter",
        "implementation_step" : 3,
        "acquire_public_ip" : false,
        "private_ips_count" : 1,
        "firewall" : {
          "incoming" : {
            "source_ips" : [ ],
            "source_nodes" : [ ],
            "interface" : "private:1",
            "proto" : [ "TCP" ],
            "port_list" : [ "22", "80", "443" ]
          },
          "outcoming" : {
            "destination_ips" : [ ],
            "destination_nodes" : [ ],
            "interface" : "private:1",
            "proto" : [ "TCP" ],
            "port_list" : [ "*" ]
          }
        },
        "private_ips" : [ ],
        "status" : null
      } ]
    } ]
  } ],
  "slos" : [ {
    "slo_id" : "DBB_slo1",
    "capability" : "DBB",
    "metric_id" : "write_serializability_M17",
    "unit_type" : null,
    "unit" : null,
    "value" : "true",
    "operator" : "eq",
    "value1" : null,
    "value2" : null,
    "interval_step" : null,
    "importance_level" : "MEDIUM"
  }, {
    "slo_id" : "DBB_slo2",
    "capability" : "DBB",
    "metric_id" : "read_freshness_M18",
    "unit_type" : null,
    "unit" : null,
    "value" : "true",
    "operator" : "eq",
    "value1" : null,
    "value2" : null,
    "interval_step" : null,
    "importance_level" : "MEDIUM"
  }, {
    "slo_id" : "DBB_slo3",
    "capability" : "DBB",
    "metric_id" : "integrity_M25",
    "unit_type" : null,
    "unit" : null,
    "value" : "true",
    "operator" : "eq",
    "value1" : null,
    "value2" : null,
    "interval_step" : null,
    "importance_level" : "MEDIUM"
  }, {
    "slo_id" : "e2ee_slo1",
    "capability" : "E2EE",
    "metric_id" : "confidentiality_M19",
    "unit_type" : null,
    "unit" : null,
    "value" : "yes",
    "operator" : "eq",
    "value1" : null,
    "value2" : null,
    "interval_step" : null,
    "importance_level" : "MEDIUM"
  } ],
  "measurements" : [ {
    "msr_id" : "specs:in_violation:DBB_MSR1",
    "msr_description" : "Client detection of the integrity violation.",
    "frequency" : "epoch",
    "metrics" : [ "integrity_M25" ],
    "monitoring_event" : {
      "event_id" : "specs:in_violation:DBB_E1",
      "event_description" : "Client detected a violation of integrity.",
      "event_type" : "VIOLATION",
      "condition" : {
        "operator" : "eq",
        "threshold" : "true"
      }
    }
  }, {
    "msr_id" : "specs:ws_violation:DBB_MSR2",
    "msr_description" : "Client detection of a chain hash incorrectness (violation of IN).",
    "frequency" : "epoch",
    "metrics" : [ "write_serializability_M17" ],
    "monitoring_event" : {
      "event_id" : "specs:ws_violation:DBB_E2",
      "event_description" : "Client detected a chain hash incorrectness (violation of WS).",
      "event_type" : "VIOLATION",
      "condition" : {
        "operator" : "eq",
        "threshold" : "true"
      }
    }
  }, {
    "msr_id" : "ws_fork_dbb_msr3",
    "msr_description" : "Detection of the fork attack.",
    "frequency" : "epoch",
    "metrics" : [ "write_serializability_M17", "read_freshness_M18" ],
    "monitoring_event" : {
      "event_id" : "specs:fork_attack:DBB_E3",
      "event_description" : "A fork attack has been detected (violation of WS and RF).",
      "event_type" : "VIOLATION",
      "condition" : {
        "operator" : "eq",
        "threshold" : "true"
      }
    }
  }, {
    "msr_id" : "specs:different_block_int:DBB_MSR4",
    "msr_description" : "Occurence of the attack that caused two users to receive different block data with the same block and version number. Integrity is also violated.",
    "frequency" : "epoch",
    "metrics" : [ "read_freshness_M18", "integrity_M25" ],
    "monitoring_event" : {
      "event_id" : "specs:different_block_int:DBB_E4",
      "event_description" : "Two users received different block data with the same block and version number, integrity has been violated (violation of RF and IN).",
      "event_type" : "VIOLATION",
      "condition" : {
        "operator" : "eq",
        "threshold" : "true"
      }
    }
  }, {
    "msr_id" : "specs:different_block:DBB_MSR5",
    "msr_description" : "Occurence of the attack that caused two EU to receive different block data with the same block and version number (violation of RF).",
    "frequency" : "epoch",
    "metrics" : [ "read_freshness_M18" ],
    "monitoring_event" : {
      "event_id" : "specs:different_block:DBB_E5",
      "event_description" : "Two users received different block data with the same block and version number (violation of RF).",
      "event_type" : "VIOLATION",
      "condition" : {
        "operator" : "eq",
        "threshold" : "true"
      }
    }
  }, {
    "msr_id" : "specs:ws_int_violation:DBB_MSR6",
    "msr_description" : "Client detection of integrity violation, Auditor detection of WS violation.",
    "frequency" : "epoch",
    "metrics" : [ "write_serializability_M17", "integrity_M25" ],
    "monitoring_event" : {
      "event_id" : "specs:es_int_violation:DBB_E6",
      "event_description" : "Violation of IN and WS has been detected.",
      "event_type" : "VIOLATION",
      "condition" : {
        "operator" : "eq",
        "threshold" : "true"
      }
    }
  }, {
    "msr_id" : "specs:rollback_attack:DBB_MSR7",
    "msr_description" : "Detection of the rollback attack.",
    "frequency" : "epoch",
    "metrics" : [ "write_serializability_M17" ],
    "monitoring_event" : {
      "event_id" : "specs:rollback_attack:DBB_E7",
      "event_description" : "Rollback attack has been detected.",
      "event_type" : "VIOLATION",
      "condition" : {
        "operator" : "eq",
        "threshold" : "true"
      }
    }
  }, {
    "msr_id" : "specs:system_error:DBB_MSR8",
    "msr_description" : "Detection of a system error.",
    "frequency" : "epoch",
    "metrics" : [ "write_serializability_M17" ],
    "monitoring_event" : {
      "event_id" : "specs:system_error:DBB_E8",
      "event_description" : "System error has been detected.",
      "event_type" : "VIOLATION",
      "condition" : {
        "operator" : "eq",
        "threshold" : "true"
      }
    }
  }, {
    "msr_id" : "specs:primary_server_availability:DBB_MSR9",
    "msr_description" : "Availability of the primary server.",
    "frequency" : "1min",
    "metrics" : [ "write_serializability_M17", "read_freshness_M18", "integrity_M25" ],
    "monitoring_event" : {
      "event_id" : "specs:primary_server_unavailable:DBB_E9",
      "event_description" : "Primary server is unavailable.",
      "event_type" : "ALERT",
      "condition" : {
        "operator" : "eq",
        "threshold" : "true"
      }
    }
  }, {
    "msr_id" : "specs:primary_db_availability:DBB_MSR10",
    "msr_description" : "Availability of the primary database.",
    "frequency" : "1min",
    "metrics" : [ "write_serializability_M17", "read_freshness_M18", "integrity_M25" ],
    "monitoring_event" : {
      "event_id" : "specs:primary_database_unavailable:DBB_E10",
      "event_description" : "Primary database is unavailable.",
      "event_type" : "ALERT",
      "condition" : {
        "operator" : "eq",
        "threshold" : "true"
      }
    }
  }, {
    "msr_id" : "specs:backup_server_availability:DBB_MSR11",
    "msr_description" : "Availability of the server hosted on the backup storage site.",
    "frequency" : "1min",
    "metrics" : [ "write_serializability_M17", "read_freshness_M18", "integrity_M25" ],
    "monitoring_event" : {
      "event_id" : "specs:backup_server_unavailable:DBB_E11",
      "event_description" : "Backup server is unavailable.",
      "event_type" : "ALERT",
      "condition" : {
        "operator" : "eq",
        "threshold" : "true"
      }
    }
  }, {
    "msr_id" : "specs:backup_db_availability:DBB_MSR12",
    "msr_description" : "Availability of the backup database.",
    "frequency" : "1min",
    "metrics" : [ "write_serializability_M17", "read_freshness_M18", "integrity_M25" ],
    "monitoring_event" : {
      "event_id" : "specs:backup_db_unavailable:DBB_E12",
      "event_description" : "Backup database is unavailable",
      "event_type" : "ALERT",
      "condition" : {
        "operator" : "eq",
        "threshold" : "true"
      }
    }
  }, {
    "msr_id" : "specs:backup_restore_completeness:DBB_MSR13",
    "msr_description" : "Completeness of backup and restoration.",
    "frequency" : "1min",
    "metrics" : [ "write_serializability_M17", "read_freshness_M18", "integrity_M25" ],
    "monitoring_event" : {
      "event_id" : "specs:backup_restoration:DBB_E13",
      "event_description" : "Backup or restoration has failed.",
      "event_type" : "ALERT",
      "condition" : {
        "operator" : "eq",
        "threshold" : "true"
      }
    }
  }, {
    "msr_id" : "specs:client_code:E2EE_MSR1",
    "msr_description" : "Availability of the latest version of the Client code at the web store.",
    "frequency" : "24h",
    "metrics" : [ "confidentiality_M19" ],
    "monitoring_event" : {
      "event_id" : "specs:client_code_not_available:E2EE_E1",
      "event_description" : "Client code is not available.",
      "event_type" : "VIOLATION",
      "condition" : {
        "operator" : "eq",
        "threshold" : "false"
      }
    }
  } ],
  "annotations" : [ ]
}